Lab0/simulation/bcd_counter_tb.vcd
$date
  Wed Sep 29 11:58:49 2021
$end
$version
  GHDL v0
$end
$timescale
  1 fs
$end
$scope module standard $end
$upscope $end
$scope module textio $end
$upscope $end
$scope module std_logic_1164 $end
$upscope $end
$scope module numeric_std $end
$upscope $end
$scope module env $end
$upscope $end
$scope module bcd_counter_tb $end
$var reg 1 ! clk_in_tb $end
$var reg 1 " reset_tb $end
$var reg 1 # dir_tb $end
$var reg 1 $ load_tb $end
$var reg 4 % count_in[3:0] $end
$var reg 4 & led_tb[3:0] $end
$var reg 1 ' clk_out_tb $end
$scope module count1 $end
$var reg 1 ( clk $end
$var reg 1 ) dir $end
$var reg 1 * reset $end
$var reg 4 + led[3:0] $end
$var reg 1 , clk_out $end
$scope module divider $end
$var reg 1 - clk_in $end
$var reg 1 . clk_out $end
$var integer 32 / count $end
$upscope $end
$upscope $end
$scope module divider $end
$var reg 1 0 clk_in $end
$var reg 1 1 clk_out $end
$var integer 32 2 count $end
$upscope $end
$upscope $end
$enddefinitions $end
#0
0!
1"
1#
0$
b0000 %
b0000 &
U'
0(
1)
1*
b0000 +
U,
0-
U.
b1 /
00
U1
b1 2
#20000000
1!
1(
1-
b10 /
10
b10 2
#40000000
0!
0"
0(
0*
0-
00
#60000000
1!
1(
1-
b11 /
10
b11 2
#80000000
0!
0(
0-
00
#100000000
1!
1(
1-
b100 /
10
b100 2
#120000000
0!
0(
0-
00
#140000000
1!
1(
1-
b101 /
10
b101 2
#160000000
0!
0(
0-
00
#180000000
1!
1(
1-
b110 /
10
b110 2
#200000000
0!
0(
0-
00
#220000000
1!
1(
1-
b111 /
10
b111 2
#240000000
0!
0(
0-
00
#260000000
1!
1(
1-
b1000 /
10
b1000 2
#280000000
0!
0(
0-
00
#300000000
1!
1(
1-
b1001 /
10
b1001 2
#320000000
0!
0(
0-
00
#340000000
1!
1(
1-
b1010 /
10
b1010 2
#360000000
0!
0(
0-
00
#380000000
1!
1(
1-
b1011 /
10
b1011 2
#400000000
0!
0(
0-
00
#420000000
1!
1(
1-
b1100 /
10
b1100 2
#440000000
0!
0(
0-
00
#460000000
1!
1(
1-
b1101 /
10
b1101 2
#480000000
0!
0(
0-
00
#500000000
1!
1(
1-
b1110 /
10
b1110 2
#520000000
0!
0(
0-
00
#540000000
1!
1(
1-
b1111 /
10
b1111 2
#560000000
0!
0(
0-
00
#580000000
1!
1(
1-
b10000 /
10
b10000 2
#600000000
0!
0(
0-
00
#620000000
1!
1(
1-
b10001 /
10
b10001 2
#640000000
0!
0(
0-
00
#660000000
1!
1(
1-
b10010 /
10
b10010 2
#680000000
0!
0(
0-
00
#700000000
1!
1(
1-
b10011 /
10
b10011 2
#720000000
0!
0(
0-
00
#740000000
1!
1(
1-
b10100 /
10
b10100 2
#760000000
0!
0(
0-
00
#780000000
1!
1(
1-
b10101 /
10
b10101 2
#800000000
0!
0(
0-
00
#820000000
1!
1(
1-
b10110 /
10
b10110 2
#840000000
0!
0(
0-
00
#860000000
1!
1(
1-
b10111 /
10
b10111 2
#880000000
0!
0(
0-
00
#900000000
1!
1(
1-
b11000 /
10
b11000 2
#920000000
0!
0(
0-
00
#940000000
1!
1(
1-
b11001 /
10
b11001 2
#960000000
0!
0(
0-
00
#980000000
1!
1(
1-
b11010 /
10
b11010 2
#1000000000
0!
0(
0-
00
#1020000000
1!
1(
1-
b11011 /
10
b11011 2
#1040000000
0!
0#
0(
0)
0-
00
#1060000000
1!
1(
1-
b11100 /
10
b11100 2
#1080000000
0!
0(
0-
00
#1100000000
1!
1(
1-
b11101 /
10
b11101 2
#1120000000
0!
0(
0-
00
#1140000000
1!
1(
1-
b11110 /
10
b11110 2
#1160000000
0!
0(
0-
00
#1180000000
1!
1(
1-
b11111 /
10
b11111 2
#1200000000
0!
0(
0-
00
#1220000000
1!
1(
1-
b100000 /
10
b100000 2
#1240000000
0!
0(
0-
00
#1260000000
1!
1(
1-
b100001 /
10
b100001 2
#1280000000
0!
0(
0-
00
#1300000000
1!
1(
1-
b100010 /
10
b100010 2
#1320000000
0!
0(
0-
00
#1340000000
1!
1(
1-
b100011 /
10
b100011 2
#1360000000
0!
0(
0-
00
#1380000000
1!
1(
1-
b100100 /
10
b100100 2
#1400000000
0!
0(
0-
00
#1420000000
1!
1(
1-
b100101 /
10
b100101 2
#1440000000
0!
0(
0-
00
#1460000000
1!
1(
1-
b100110 /
10
b100110 2
#1480000000
0!
0(
0-
00
#1500000000
1!
1(
1-
b100111 /
10
b100111 2
